Date;Name;Surname;Patronymic;City;Country
01.01.2007;Name1;Surname1;Patronymic1;City1;Country1
01.01.2007;Name2;Surname2;Patronymic2;City1;Country1
01.01.2007;Name3;Surname3;Patronymic3;City1;Country1
01.01.2007;Name4;Surname4;Patronymic4;City1;Country1
01.01.2007;Name5;Surname5;Patronymic5;City5;Country5
01.01.2007;Name6;Surname6;Patronymic6;City6;Country6
01.01.2007;Name7;Surname7;Patronymic7;City6;Country6
01.01.2007;Name8;Surname8;Patronymic8;City6;Country6
01.01.2007;Name9;Surname9;Patronymic9;City6;Country6
01.01.2007;Name10;Surname10;Patronymic10;City10;Country10
01.01.2007;Name11;Surname11;Patronymic11;City11;Country11
01.01.2007;Name12;Surname12;Patronymic12;City12;Country12
01.01.2007;Name13;Surname13;Patronymic13;City13;Country13
01.01.2007;Name14;Surname14;Patronymic14;City14;Country14
19.01.2007;Name15;Surname15;Patronymic15;City14;Country14
19.01.2007;Name16;Surname16;Patronymic16;City14;Country14
19.01.2007;Name17;Surname17;Patronymic17;City14;Country14
19.01.2007;Name18;Surname18;Patronymic18;City14;Country14
19.01.2007;Name19;Surname19;Patronymic19;City14;Country14
20.01.2007;Name20;Surname20;Patronymic20;City14;Country14
20.01.2007;Name21;Surname21;Patronymic21;City14;Country14
20.01.2007;Name22;Surname22;Patronymic22;City14;Country14
20.01.2007;Name23;Surname23;Patronymic23;City15;Country15
20.01.2007;Name23;Surname23;Patronymic23;City15;Country15
20.01.2007;Name23;Surname23;Patronymic23;City15;Country15
20.01.2007;Name23;Surname23;Patronymic23;City15;Country15
20.01.2007;Name23;Surname23;Patronymic23;City15;Country15
20.01.2007;Name23;Surname23;Patronymic23;City15;Country15
29.01.2007;Name23;Surname23;Patronymic23;City15;Country15
30.01.2007;Name23;Surname23;Patronymic23;City15;Country15
